// Jest Snapshot v1, https://goo.gl/fbAQLP

exports[`Routing conf should contains correct routes/guards 1`] = `
Routes: [ 
   Route: {
            path: ,
            component: undefined,
            redirectTo: /books,
            pathMatch: full,
            canActivate: undefined
          }
,   Route: {
            path: books,
            component: BooksListPageComponent,
            redirectTo: undefined,
            pathMatch: undefined,
            canActivate: CollectionPreloadGuard
          }
,   Route: {
            path: book/:isbn,
            component: BookDetailPageComponent,
            redirectTo: undefined,
            pathMatch: undefined,
            canActivate: BookExistenceGuard
          }
,   Route: {
            path: cart,
            component: CartPageComponent,
            redirectTo: undefined,
            pathMatch: undefined,
            canActivate: undefined
          }
,   Route: {
            path: 404,
            component: NotfoundPageComponent,
            redirectTo: undefined,
            pathMatch: undefined,
            canActivate: undefined
          }
,   Route: {
            path: **,
            component: undefined,
            redirectTo: ,
            pathMatch: undefined,
            canActivate: undefined
          }
]
`;
