// Jest Snapshot v1, https://goo.gl/fbAQLP

exports[`Collection Reducer LoadCollectionFailure action should return the state with error details 1`] = `
Object {
  "entities": Object {},
  "error": [Error: Ouch Charlie],
  "ids": Array [],
  "loaded": true,
  "loading": false,
}
`;

exports[`Collection Reducer LoadCollectionRequest action should return the initial state with loading=true 1`] = `
Object {
  "entities": Object {},
  "error": null,
  "ids": Array [],
  "loaded": false,
  "loading": true,
}
`;

exports[`Collection Reducer LoadCollectionSucess action should return the state with loaded books 1`] = `
Object {
  "entities": Object {
    "123": Object {
      "cover": "http://cover1.com",
      "isbn": "123",
      "price": 25,
      "synopsis": Array [
        "Lorem ipsum",
      ],
      "title": "Book 123",
    },
    "456": Object {
      "cover": "http://cover.com",
      "isbn": "456",
      "price": 30,
      "synopsis": Array [
        "Lorem ipsum",
      ],
      "title": "Book 456",
    },
  },
  "error": null,
  "ids": Array [
    "123",
    "456",
  ],
  "loaded": true,
  "loading": false,
}
`;
