// Jest Snapshot v1, https://goo.gl/fbAQLP

exports[`CartPageComponent should create 1`] = `
<app-cart-page
  cart$={[Function Store]}
  cartProducts$={[Function Store]}
  loading="false"
  store={[Function Store]}
  subs={[Function Subscription]}
>
  <div
    class="container"
    fxflexfill=""
    fxlayout="row"
    fxlayout.xs="column-reverse"
  >
    <div
      fxflex=""
    >
      <div
        fxlayout="column"
      >
        <h1
          class="mat-h1"
        >
          Panier
        </h1>
        
        <div
          fxlayout="row wrap"
          fxlayoutalign="start"
          fxlayoutgap="10px"
          fxlayoutgap.xs="0"
        >
          
          <mat-card
            class="cartItem mat-card"
          >
            <mat-card-content
              class="mat-card-content mat-card-image"
              mat-card-image=""
            >
              <app-book
                class="book"
                ng-reflect-book="[object Object]"
                ng-reflect-show-cover="false"
                ng-reflect-show-description="false"
              >
                <div
                  fxlayout="row"
                  fxlayout.xs="column"
                  fxlayoutalign="center start"
                  fxlayoutalign.xs="center center"
                  fxlayoutgap="10px"
                  fxlayoutgap.xs="0"
                >
                  <mat-card
                    class="description mat-card"
                  >
                    <mat-card-header
                      class="mat-card-header"
                    >
                      <div
                        class="mat-card-header-text"
                      >
                        <mat-card-title
                          class="mat-card-title"
                          ng-reflect-router-link="/book/,123"
                          tabindex="0"
                        >
                          Book 123
                        </mat-card-title>
                        <mat-card-subtitle
                          class="mat-card-subtitle"
                        >
                           Prix: €25.36 
                          
                        </mat-card-subtitle>
                      </div>
                    </mat-card-header>
                    <mat-card-content
                      class="mat-card-content"
                    />
                    
                    
                    <mat-card-actions
                      class="mat-card-actions"
                    >
                      
                      
                    </mat-card-actions>
                  </mat-card>
                  
                </div>
              </app-book>
            </mat-card-content>
            <mat-card-actions
              class="mat-card-actions"
            >
              <div
                fxflexfill=""
                fxlayout="row"
                fxlayoutalign="end"
              >
                <div
                  class="qte-update"
                  fxflexalign="start"
                >
                  <button
                    class="inc mat-mini-fab mat-primary"
                    color="primary"
                    mat-mini-fab=""
                    ng-reflect-color="primary"
                    test-id="incr:123"
                  >
                    <span
                      class="mat-button-wrapper"
                    >
                      <mat-icon
                        aria-hidden="true"
                        class="mat-icon material-icons"
                        role="img"
                      >
                        add
                      </mat-icon>
                    </span>
                    <div
                      class="mat-button-ripple mat-ripple mat-button-ripple-round"
                      matripple=""
                      ng-reflect-centered="false"
                      ng-reflect-disabled="false"
                      ng-reflect-trigger="[object HTMLButtonElement]"
                    />
                    <div
                      class="mat-button-focus-overlay"
                    />
                  </button>
                  <span
                    class="qte"
                  >
                    Qte: 1
                  </span>
                  <button
                    class="dec mat-mini-fab mat-accent"
                    color="accent"
                    mat-mini-fab=""
                    ng-reflect-color="accent"
                    test-id="decr:123"
                  >
                    <span
                      class="mat-button-wrapper"
                    >
                      <mat-icon
                        aria-hidden="true"
                        class="mat-icon material-icons"
                        role="img"
                      >
                        remove
                      </mat-icon>
                    </span>
                    <div
                      class="mat-button-ripple mat-ripple mat-button-ripple-round"
                      matripple=""
                      ng-reflect-centered="false"
                      ng-reflect-disabled="false"
                      ng-reflect-trigger="[object HTMLButtonElement]"
                    />
                    <div
                      class="mat-button-focus-overlay"
                    />
                  </button>
                </div>
                <button
                  aria-describedby="cdk-describedby-message-0"
                  cdk-describedby-host=""
                  class="remove mat-mini-fab mat-warn"
                  color="warn"
                  fxflexalign="end"
                  mat-mini-fab=""
                  mattooltip="Retirer"
                  ng-reflect-color="warn"
                  ng-reflect-message="Retirer"
                  test-id="rm:123"
                >
                  <span
                    class="mat-button-wrapper"
                  >
                    <mat-icon
                      aria-hidden="true"
                      class="mat-icon material-icons"
                      role="img"
                    >
                      remove_shopping_cart
                    </mat-icon>
                  </span>
                  <div
                    class="mat-button-ripple mat-ripple mat-button-ripple-round"
                    matripple=""
                    ng-reflect-centered="false"
                    ng-reflect-disabled="false"
                    ng-reflect-trigger="[object HTMLButtonElement]"
                  />
                  <div
                    class="mat-button-focus-overlay"
                  />
                </button>
              </div>
            </mat-card-actions>
          </mat-card>
          <mat-card
            class="cartItem mat-card"
          >
            <mat-card-content
              class="mat-card-content mat-card-image"
              mat-card-image=""
            >
              <app-book
                class="book"
                ng-reflect-book="[object Object]"
                ng-reflect-show-cover="false"
                ng-reflect-show-description="false"
              >
                <div
                  fxlayout="row"
                  fxlayout.xs="column"
                  fxlayoutalign="center start"
                  fxlayoutalign.xs="center center"
                  fxlayoutgap="10px"
                  fxlayoutgap.xs="0"
                >
                  <mat-card
                    class="description mat-card"
                  >
                    <mat-card-header
                      class="mat-card-header"
                    >
                      <div
                        class="mat-card-header-text"
                      >
                        <mat-card-title
                          class="mat-card-title"
                          ng-reflect-router-link="/book/,456"
                          tabindex="0"
                        >
                          Book 456
                        </mat-card-title>
                        <mat-card-subtitle
                          class="mat-card-subtitle"
                        >
                           Prix: €99.99 
                          
                        </mat-card-subtitle>
                      </div>
                    </mat-card-header>
                    <mat-card-content
                      class="mat-card-content"
                    />
                    
                    
                    <mat-card-actions
                      class="mat-card-actions"
                    >
                      
                      
                    </mat-card-actions>
                  </mat-card>
                  
                </div>
              </app-book>
            </mat-card-content>
            <mat-card-actions
              class="mat-card-actions"
            >
              <div
                fxflexfill=""
                fxlayout="row"
                fxlayoutalign="end"
              >
                <div
                  class="qte-update"
                  fxflexalign="start"
                >
                  <button
                    class="inc mat-mini-fab mat-primary"
                    color="primary"
                    mat-mini-fab=""
                    ng-reflect-color="primary"
                    test-id="incr:456"
                  >
                    <span
                      class="mat-button-wrapper"
                    >
                      <mat-icon
                        aria-hidden="true"
                        class="mat-icon material-icons"
                        role="img"
                      >
                        add
                      </mat-icon>
                    </span>
                    <div
                      class="mat-button-ripple mat-ripple mat-button-ripple-round"
                      matripple=""
                      ng-reflect-centered="false"
                      ng-reflect-disabled="false"
                      ng-reflect-trigger="[object HTMLButtonElement]"
                    />
                    <div
                      class="mat-button-focus-overlay"
                    />
                  </button>
                  <span
                    class="qte"
                  >
                    Qte: 2
                  </span>
                  <button
                    class="dec mat-mini-fab mat-accent"
                    color="accent"
                    mat-mini-fab=""
                    ng-reflect-color="accent"
                    test-id="decr:456"
                  >
                    <span
                      class="mat-button-wrapper"
                    >
                      <mat-icon
                        aria-hidden="true"
                        class="mat-icon material-icons"
                        role="img"
                      >
                        remove
                      </mat-icon>
                    </span>
                    <div
                      class="mat-button-ripple mat-ripple mat-button-ripple-round"
                      matripple=""
                      ng-reflect-centered="false"
                      ng-reflect-disabled="false"
                      ng-reflect-trigger="[object HTMLButtonElement]"
                    />
                    <div
                      class="mat-button-focus-overlay"
                    />
                  </button>
                </div>
                <button
                  aria-describedby="cdk-describedby-message-0"
                  cdk-describedby-host=""
                  class="remove mat-mini-fab mat-warn"
                  color="warn"
                  fxflexalign="end"
                  mat-mini-fab=""
                  mattooltip="Retirer"
                  ng-reflect-color="warn"
                  ng-reflect-message="Retirer"
                  test-id="rm:456"
                >
                  <span
                    class="mat-button-wrapper"
                  >
                    <mat-icon
                      aria-hidden="true"
                      class="mat-icon material-icons"
                      role="img"
                    >
                      remove_shopping_cart
                    </mat-icon>
                  </span>
                  <div
                    class="mat-button-ripple mat-ripple mat-button-ripple-round"
                    matripple=""
                    ng-reflect-centered="false"
                    ng-reflect-disabled="false"
                    ng-reflect-trigger="[object HTMLButtonElement]"
                  />
                  <div
                    class="mat-button-focus-overlay"
                  />
                </button>
              </div>
            </mat-card-actions>
          </mat-card>
        </div>
      </div>
    </div>
    
    <div
      fxflex="33"
    >
      <mat-list
        class="mat-list"
      >
        <h1
          class="mat-subheader"
          mat-subheader=""
        >
          Récapitulatif
        </h1>
        
        <mat-list-item
          class="mat-list-item mat-2-line"
        >
          <div
            class="mat-list-item-content"
          >
            <div
              class="mat-list-item-ripple mat-ripple"
              mat-ripple=""
              ng-reflect-disabled="true"
              ng-reflect-trigger="[object HTMLUnknownElement]"
            />
            <mat-icon
              aria-hidden="true"
              class="mat-icon mat-list-icon material-icons"
              mat-list-icon=""
              role="img"
            >
              book
            </mat-icon>
            <div
              class="mat-list-text"
            >
              <h4
                class="mat-line"
                mat-line=""
              >
                Book 123
              </h4>
              <p
                class="mat-line"
                mat-line=""
              >
                Sous total: €25.36 
              </p>
            </div>
          </div>
        </mat-list-item>
        <mat-list-item
          class="mat-list-item mat-2-line"
        >
          <div
            class="mat-list-item-content"
          >
            <div
              class="mat-list-item-ripple mat-ripple"
              mat-ripple=""
              ng-reflect-disabled="true"
              ng-reflect-trigger="[object HTMLUnknownElement]"
            />
            <mat-icon
              aria-hidden="true"
              class="mat-icon mat-list-icon material-icons"
              mat-list-icon=""
              role="img"
            >
              book
            </mat-icon>
            <div
              class="mat-list-text"
            >
              <h4
                class="mat-line"
                mat-line=""
              >
                Book 456
              </h4>
              <p
                class="mat-line"
                mat-line=""
              >
                Sous total: €199.98 
              </p>
            </div>
          </div>
        </mat-list-item>
        <mat-divider
          aria-orientation="horizontal"
          class="mat-divider"
          role="separator"
        />
        
        
        
        <mat-list-item
          class="discount mat-list-item mat-2-line"
        >
          <div
            class="mat-list-item-content"
          >
            <div
              class="mat-list-item-ripple mat-ripple"
              mat-ripple=""
              ng-reflect-disabled="true"
              ng-reflect-trigger="[object HTMLUnknownElement]"
            />
            <mat-icon
              aria-hidden="true"
              class="mat-icon mat-list-icon material-icons"
              mat-list-icon=""
              role="img"
            >
              attach_money
            </mat-icon>
            <div
              class="mat-list-text"
            >
              <h4
                class="mat-line"
                mat-line=""
              >
                Promotion
              </h4>
              <p
                class="mat-line"
                mat-line=""
                style="visibility: visible;"
              >
                Montant: €0.00
              </p>
            </div>
          </div>
        </mat-list-item>
        <mat-divider
          aria-orientation="horizontal"
          class="mat-divider"
          role="separator"
        />
        <mat-list-item
          class="payment-without-discount mat-list-item mat-2-line"
        >
          <div
            class="mat-list-item-content"
          >
            <div
              class="mat-list-item-ripple mat-ripple"
              mat-ripple=""
              ng-reflect-disabled="true"
              ng-reflect-trigger="[object HTMLUnknownElement]"
            />
            <mat-icon
              aria-hidden="true"
              class="mat-icon mat-list-icon material-icons"
              mat-list-icon=""
              role="img"
            >
              money_off
            </mat-icon>
            <div
              class="mat-list-text"
            >
              <h4
                class="mat-line"
                mat-line=""
              >
                Total sans promotion
              </h4>
              <p
                class="mat-line"
                mat-line=""
              >
                €225.34 
              </p>
            </div>
          </div>
        </mat-list-item>
        <mat-divider
          aria-orientation="horizontal"
          class="mat-divider"
          role="separator"
        />
        
        <mat-list-item
          class="payment-info mat-list-item mat-2-line"
        >
          <div
            class="mat-list-item-content"
          >
            <div
              class="mat-list-item-ripple mat-ripple"
              mat-ripple=""
              ng-reflect-disabled="true"
              ng-reflect-trigger="[object HTMLUnknownElement]"
            />
            <mat-icon
              aria-hidden="true"
              class="mat-icon mat-list-icon material-icons"
              mat-list-icon=""
              role="img"
            >
              monetization_on
            </mat-icon>
            <div
              class="mat-list-text"
            >
              <h4
                class="mat-line"
                mat-line=""
              >
                Montant à payer
              </h4>
              <p
                class="mat-line"
                mat-line=""
                style="visibility: visible;"
              >
                €225.34 
              </p>
            </div>
          </div>
        </mat-list-item>
        <mat-divider
          aria-orientation="horizontal"
          class="mat-divider"
          role="separator"
        />
      </mat-list>
      <a
        aria-disabled="false"
        class="payment mat-raised-button mat-primary"
        color="primary"
        href="https://twitter.com/fayway2"
        mat-raised-button=""
        ng-reflect-color="primary"
        tabindex="0"
        target="_blank"
      >
        <span
          class="mat-button-wrapper"
        >
           Payer 
          <mat-icon
            aria-hidden="true"
            class="mat-icon mat-list-icon material-icons"
            mat-list-icon=""
            role="img"
          >
            payment
          </mat-icon>
        </span>
        <div
          class="mat-button-ripple mat-ripple"
          matripple=""
          ng-reflect-centered="false"
          ng-reflect-disabled="false"
          ng-reflect-trigger="https://twitter.com/fayway2"
        />
        <div
          class="mat-button-focus-overlay"
        />
      </a>
    </div>
  </div>
</app-cart-page>
`;
